-------------------------------------------------------------------------------
Test set: by.epam.testingsystem.dao.impl.MySQLTestDAOTest
-------------------------------------------------------------------------------
Tests run: 3, Failures: 0, Errors: 0, Skipped: 0, Time elapsed: 1.643 sec
